%YAML 1.1
%TAG !u! tag:unity3d.com,2011:
--- !u!114 &11400000
MonoBehaviour:
  m_ObjectHideFlags: 0
  m_CorrespondingSourceObject: {fileID: 0}
  m_PrefabInstance: {fileID: 0}
  m_PrefabAsset: {fileID: 0}
  m_GameObject: {fileID: 0}
  m_Enabled: 1
  m_EditorHideFlags: 0
  m_Script: {fileID: 11500000, guid: a3fe7f05db81fdc499049cd28aac8767, type: 3}
  m_Name: HealthyFood1
  m_EditorClassIdentifier: 
  FoodImage: {fileID: 21300000, guid: 52a28222af3339048bf05c6d0dd1e474, type: 3}
  HealthyFood: 1
